Visualisation customs
…
Code

cv %>% dplyr::select(rate) %>% group_by(rate) %>% dplyr::summarise(n = n()) %>% 
  mutate(p = round(n / sum(n), 2)) %>% arrange(desc(n))

# A tibble: 43 × 3
    rate     n     p
   <dbl> <int> <dbl>
 1  1       78  0.38
 2  0.16    12  0.06
 3  0.06    10  0.05
 4  0.19     9  0.04
 5  0.25     9  0.04
 6  0.08     8  0.04
 7  0.94     6  0.03
 8  0.02     5  0.02
 9  0.05     5  0.02
10  0.09     5  0.02
# ℹ 33 more rows
…
Code

# If you don't want to provide a number on previous question, please, provide a justification
# depends on what??
# manual categorization of depending
j <- data %>%    
  dplyr::rename(q = !!names(.)[78]) %>% filter(!is.na(q)) %>% dplyr::select(q) %>% 
  mutate(q = tolower(q)) %>% mutate(q = gsub('depends in|depending on', 'depends on', q),
         dependson = ifelse(grepl("depends|depend", q), q, NA)) %>% 
  separate(dependson, into = c("a","b"), sep = "depends on |depend on ") %>% 
  dplyr::select(-a) %>% 
  dplyr::rename(dependson = b) #%>% 
j %>% filter(!is.na(dependson)) %>% select(dependson)

# A tibble: 37 × 1
   dependson                                                                    
   <chr>                                                                        
 1 "the design of course"                                                       
 2 "the topic"                                                                  
 3 "the study. if you have interstimulus interval of 1 second and you expect to…
 4 "the experiment and research question"                                       
 5 "the rest period between the measured evoked responses. e.g. it can be very …
 6 "the analysis"                                                               
 7 "paradigm, 100-300 ms range preferable"                                      
 8 "the task design"                                                            
 9 "the type of response (eg for mrcps response is seen before actual movement …
10 "the task design, paradigm and signal of interest."                          
# ℹ 27 more rows

Code

j %>% filter(is.na(dependson))  %>% select(-dependson)

# A tibble: 21 × 1
   q                                                                            
   <chr>                                                                        
 1 minimum 200ms for erps and theta or beta power                               
 2 should match the duration of baseline-correction                             
 3 as a rule of thumb, i would plot at least 1/3 of the duration (post-stimulus…
 4 half of the illustrated task interval                                        
 5 in general i would always try to plot the full baseline period used for base…
 6 the same duration as the one used for baseline correction                    
 7 at least 300, preferably more                                                
 8 put down 100, but that's just what i typically use, might be diff for differ…
 9 at least the baseline window used for the baseline correction?               
10 in this case it has sense as the -100 : 0 ms is not flat                     
# ℹ 11 more rows
…
