exploration
…
Warning: Expected 2 pieces. Additional pieces discarded in 2 rows [23, 27].

Warning: Expected 2 pieces. Missing pieces filled with `NA` in 1 rows [11].

j

# A tibble: 49 × 2
   q                                                                     depen…¹
   <chr>                                                                 <chr>  
 1 "minimum 200ms for erps and theta or beta power"                       <NA>  
 2 "depends on the design of course"                                     "the d…
 3 "depend on the topic"                                                  <NA>  
 4 "i think that there can be no one correct answer.       it depends o… "the s…
 5 "depends on the experiment and research question"                     "the e…
 6 "should match the duration of baseline-correction"                     <NA>  
 7 "as a rule of thumb, i would plot at least 1/3 of the duration (post…  <NA>  
 8 "half of the illustrated task interval"                                <NA>  
 9 "in general i would always try to plot the full baseline period used…  <NA>  
10 "depends on the rest period between the measured evoked responses. e… "the r…
# … with 39 more rows, and abbreviated variable name ¹​dependson
…
