3.plot_breakdown
…
struggle1 <- word_preproc_tool_2(data, 71, 10) 

Warning: `funs()` was deprecated in dplyr 0.8.0.
ℹ Please use a list of either functions or lambdas:

# Simple named list: list(mean = mean, median = median)

# Auto named with `tibble::lst()`: tibble::lst(mean, median)

# Using lambdas list(~ mean(., trim = .2), ~ median(., na.rm = TRUE))

struggle1 %>% filter( parts != "-") %>% dplyr::select(parts) 

# A tibble: 91 × 1
   parts                                                                        
   <chr>                                                                        
 1 "plotting is easy. getting the relevant data to plot (conditions, channels, …
 2 "plot the intersecting axes at 0,0"                                          
 3 "scaling"                                                                    
 4 "compute the se interval requires having the sd stored or calling all partic…
 5 "shading for error"                                                          
 6 "indicating significant differences (hotly debated esthetic issue)\r\nshadin…
 7 "sme"                                                                        
 8 "error and baseline correction"                                              
 9 "it was initially annoying to figure out how to get the legend only for the …
10 "first time understanding the code"                                          
# … with 81 more rows
