Sample bio
…
Code

data.frame(table(data[8]))  %>% dplyr::rename(country_work = !!names(.)[1]) %>%
  #mutate(country_work = ifelse(Freq >= 6, as.character(country_work), "Others")) %>%
  group_by(country_work) %>% 
  mutate(country_work = case_when(
    country_work == "United Kingdom" ~ "UK",
    TRUE ~ as.character(country_work)  
  )) %>% 
  dplyr::summarise(Freq = sum(Freq)) %>% 
  dplyr::mutate(percent_score = round(Freq / sum(Freq) * 100)) %>% 
  mutate(country_work = factor(country_work, levels = country_work[rev(order(percent_score))])) %>% 
  arrange(desc(Freq))

# A tibble: 30 × 3
   country_work  Freq percent_score
   <fct>        <int>         <dbl>
 1 Germany         53            25
 2 USA             26            12
 3 France          22            10
 4 UK              22            10
 5 Netherlands     12             6
 6 Switzerland     10             5
 7 Spain            9             4
 8 Italy            8             4
 9 Russia           7             3
10 Australia        6             3
# ℹ 20 more rows
…
